{
    "v1": {
        "aggregateMethod": "average",
        "dataType"       : "number",
        "valueType"      : "discrete"
    },
    "v2": {
        "aggregateMethod": "average",
        "dataType"       : "number",
        "valueType"      : "discrete"
    },
    "v3": {
        "aggregateMethod": "average",
        "dataType"       : "number",
        "valueType"      : "discrete"
    },
    "a12": {
        "aggregateMethod": "average",
        "dataType"       : "number",
        "valueType"      : "discrete"
    },
    "a23": {
        "aggregateMethod": "average",
        "dataType"       : "number",
        "valueType"      : "discrete"
    },
    "a31": {
        "aggregateMethod": "average",
        "dataType"       : "number",
        "valueType"      : "discrete"
    },
    "v12": {
        "aggregateMethod": "average",
        "dataType"       : "number",
        "valueType"      : "discrete"
    },
    "v23": {
        "aggregateMethod": "average",
        "dataType"       : "number",
        "valueType"      : "discrete"
    },
    "v31": {
        "aggregateMethod": "average",
        "dataType"       : "number",
        "valueType"      : "discrete"
    },
    "ac_power": {
        "aggregateMethod": "average",
        "dataType"       : "number",
        "valueType"      : "discrete"
    },
    "frequency": {
        "aggregateMethod": "average",
        "dataType"       : "number",
        "valueType"      : "discrete"
    },
    "v_line_avg": {
        "aggregateMethod": "average",
        "dataType"       : "number",
        "valueType"      : "discrete"
    },
    "ac_power_l1": {
        "aggregateMethod": "average",
        "dataType"       : "number",
        "valueType"      : "discrete"
    },
    "ac_power_l2": {
        "aggregateMethod": "average",
        "dataType"       : "number",
        "valueType"      : "discrete"
    },
    "ac_power_l3": {
        "aggregateMethod": "average",
        "dataType"       : "number",
        "valueType"      : "discrete"
    },
    "temperature": {
        "aggregateMethod": "average",
        "dataType"       : "number",
        "valueType"      : "discrete"
    },
    "apprnt_power_1": {
        "aggregateMethod": "average",
        "dataType"       : "number",
        "valueType"      : "discrete"
    },
    "apprnt_power_2": {
        "aggregateMethod": "average",
        "dataType"       : "number",
        "valueType"      : "discrete"
    },
    "apprnt_power_3": {
        "aggregateMethod": "average",
        "dataType"       : "number",
        "valueType"      : "discrete"
    },
    "line_current_1": {
        "aggregateMethod": "average",
        "dataType"       : "number",
        "valueType"      : "discrete"
    },
    "line_current_2": {
        "aggregateMethod": "average",
        "dataType"       : "number",
        "valueType"      : "discrete"
    },
    "line_current_3": {
        "aggregateMethod": "average",
        "dataType"       : "number",
        "valueType"      : "discrete"
    },
    "power_factor_1": {
        "aggregateMethod": "average",
        "dataType"       : "number",
        "valueType"      : "discrete"
    },
    "power_factor_2": {
        "aggregateMethod": "average",
        "dataType"       : "number",
        "valueType"      : "discrete"
    },
    "power_factor_3": {
        "aggregateMethod": "average",
        "dataType"       : "number",
        "valueType"      : "discrete"
    },
    "reactive_power": {
        "aggregateMethod": "average",
        "dataType"       : "number",
        "valueType"      : "discrete"
    },
    "apprnt_power_avg": {
        "aggregateMethod": "average",
        "dataType"       : "number",
        "valueType"      : "discrete"
    },
    "avg_power_factor": {
        "aggregateMethod": "average",
        "dataType"       : "number",
        "valueType"      : "discrete"
    },
    "reactive_power_1": {
        "aggregateMethod": "average",
        "dataType"       : "number",
        "valueType"      : "discrete"
    },
    "reactive_power_2": {
        "aggregateMethod": "average",
        "dataType"       : "number",
        "valueType"      : "discrete"
    },
    "reactive_power_3": {
        "aggregateMethod": "average",
        "dataType"       : "number",
        "valueType"      : "discrete"
    },
    "total_avg_current": {
        "aggregateMethod": "average",
        "dataType"       : "number",
        "valueType"      : "discrete"
    },
    "v_line_neutral_avg": {
        "aggregateMethod": "average",
        "dataType"       : "number",
        "valueType"      : "discrete"
    },
    "active_total_export": {
        "aggregateMethod": "increase",
        "dataType"       : "number",
        "valueType"      : "counter"
    },
    "active_total_import": {
        "aggregateMethod": "increase",
        "dataType"       : "number",
        "valueType"      : "counter"
    },
    "active_total_export_cumulative": {
        "aggregateMethod": "increase",
        "dataType"       : "number",
        "valueType"      : "counter"
    },
    "active_total_import_cumulative": {
        "aggregateMethod": "increase",
        "dataType"       : "number",
        "valueType"      : "counter"
    }
}