{
    "power": {
        "aggregateMethod": "average",
        "dataType"       : "csv",
        "valueType"      : "discrete"
    },
    "energy": {
        "aggregateMethod": "average",
        "dataType"       : "csv",
        "valueType"      : "discrete"
    },
    "current": {
        "aggregateMethod": "average",
        "dataType"       : "csv",
        "valueType"      : "discrete"
    },
    "voltage": {
        "aggregateMethod": "average",
        "dataType"       : "csv",
        "valueType"      : "discrete"
    }
}