{
    "isc_ref": {
        "aggregateMethod": "average",
        "dataType"       : "number",
        "valueType"      : "discrete"
    },
    "geff_ref": {
        "aggregateMethod": "average",
        "dataType"       : "number",
        "valueType"      : "discrete"
    },
    "isc_test": {
        "aggregateMethod": "average",
        "dataType"       : "number",
        "valueType"      : "discrete"
    },
    "geff_test": {
        "aggregateMethod": "average",
        "dataType"       : "number",
        "valueType"      : "discrete"
    },
    "soil_ratio": {
        "aggregateMethod": "average",
        "dataType"       : "number",
        "valueType"      : "discrete"
    },
    "sp_daily_avg": {
        "aggregateMethod": "average",
        "dataType"       : "number",
        "valueType"      : "discrete"
    },
    "sr_daily_avg": {
        "aggregateMethod": "average",
        "dataType"       : "number",
        "valueType"      : "discrete"
    },
    "percent_ratio1": {
        "aggregateMethod": "average",
        "dataType"       : "number",
        "valueType"      : "discrete"
    },
    "percent_ratio2": {
        "aggregateMethod": "average",
        "dataType"       : "number",
        "valueType"      : "discrete"
    },
    "soiling_ratio1": {
        "aggregateMethod": "average",
        "dataType"       : "number",
        "valueType"      : "discrete"
    },
    "soiling_ratio2": {
        "aggregateMethod": "average",
        "dataType"       : "number",
        "valueType"      : "discrete"
    },
    "transmit_loss1": {
        "aggregateMethod": "average",
        "dataType"       : "number",
        "valueType"      : "discrete"
    },
    "transmit_loss2": {
        "aggregateMethod": "average",
        "dataType"       : "number",
        "valueType"      : "discrete"
    },
    "ref_module_temp": {
        "aggregateMethod": "average",
        "dataType"       : "number",
        "valueType"      : "discrete"
    },
    "soil_percentage": {
        "aggregateMethod": "average",
        "dataType"       : "number",
        "valueType"      : "discrete"
    },
    "test_module_temp": {
        "aggregateMethod": "average",
        "dataType"       : "number",
        "valueType"      : "discrete"
    }
}