{
    "current": {
        "aggregateMethod": "average",
        "dataType"       : "csv",
        "valueType"      : "discrete"
    },
    "wind_speed": {
        "aggregateMethod": "average",
        "dataType"       : "number",
        "valueType"      : "discrete"
    },
    "mode_status": {
        "aggregateMethod": "latest",
        "dataType"       : "csv",
        "valueType"      : "discrete"
    },
    "actual_angle": {
        "aggregateMethod": "latest",
        "dataType"       : "csv",
        "valueType"      : "discrete"
    },
    "error_status": {
        "aggregateMethod": "latest",
        "dataType"       : "csv",
        "valueType"      : "discrete"
    },
    "target_angle": {
        "aggregateMethod": "latest",
        "dataType"       : "number",
        "valueType"      : "discrete"
    },
    "input_voltage": {
        "aggregateMethod": "average",
        "dataType"       : "csv",
        "valueType"      : "discrete"
    },
    "deviation_angle": {
        "aggregateMethod": "latest",
        "dataType"       : "number",
        "valueType"      : "discrete"
    }
}