{
    "ac_power": {
        "aggregateMethod": "average",
        "dataType"       : "number",
        "valueType"      : "discrete"
    },
    "frequency": {
        "aggregateMethod": "average",
        "dataType"       : "number",
        "valueType"      : "discrete"
    },
    "efficiency": {
        "aggregateMethod": "average",
        "dataType"       : "number",
        "valueType"      : "discrete"
    },
    "on_battery": {
        "aggregateMethod": "latest",
        "dataType"       : "number",
        "valueType"      : "discrete"
    },
    "ups_healthy": {
        "aggregateMethod": "latest",
        "dataType"       : "number",
        "valueType"      : "discrete"
    },
    "back_up_time": {
        "aggregateMethod": "average",
        "dataType"       : "number",
        "valueType"      : "discrete"
    },
    "current_load": {
        "aggregateMethod": "average",
        "dataType"       : "number",
        "valueType"      : "discrete"
    },
    "power_factor": {
        "aggregateMethod": "average",
        "dataType"       : "number",
        "valueType"      : "discrete"
    },
    "b_phase_current": {
        "aggregateMethod": "average",
        "dataType"       : "number",
        "valueType"      : "discrete"
    },
    "battery_current": {
        "aggregateMethod": "average",
        "dataType"       : "number",
        "valueType"      : "discrete"
    },
    "battery_voltage": {
        "aggregateMethod": "average",
        "dataType"       : "number",
        "valueType"      : "discrete"
    },
    "invalid_voltage": {
        "aggregateMethod": "average",
        "dataType"       : "number",
        "valueType"      : "discrete"
    },
    "r_phase_current": {
        "aggregateMethod": "average",
        "dataType"       : "number",
        "valueType"      : "discrete"
    },
    "y_phase_current": {
        "aggregateMethod": "average",
        "dataType"       : "number",
        "valueType"      : "discrete"
    },
    "ac_input_current": {
        "aggregateMethod": "average",
        "dataType"       : "number",
        "valueType"      : "discrete"
    },
    "ac_input_voltage": {
        "aggregateMethod": "average",
        "dataType"       : "number",
        "valueType"      : "discrete"
    },
    "output_frequency": {
        "aggregateMethod": "average",
        "dataType"       : "number",
        "valueType"      : "discrete"
    },
    "ac_output_voltage": {
        "aggregateMethod": "average",
        "dataType"       : "number",
        "valueType"      : "discrete"
    },
    "rectifier_voltage": {
        "aggregateMethod": "average",
        "dataType"       : "number",
        "valueType"      : "discrete"
    },
    "battery_temperature": {
        "aggregateMethod": "average",
        "dataType"       : "number",
        "valueType"      : "discrete"
    }
}