{
    "humidity": {
        "aggregateMethod": "average",
        "dataType"       : "number",
        "valueType"      : "discrete"
    },
    "pressure": {
        "aggregateMethod": "average",
        "dataType"       : "number",
        "valueType"      : "discrete"
    },
    "direction": {
        "aggregateMethod": "average",
        "dataType"       : "number",
        "valueType"      : "discrete"
    },
    "radiation": {
        "aggregateMethod": "average",
        "dataType"       : "number",
        "valueType"      : "discrete"
    },
    "roll_angle": {
        "aggregateMethod": "average",
        "dataType"       : "number",
        "valueType"      : "discrete"
    },
    "wind_speed": {
        "aggregateMethod": "average",
        "dataType"       : "number",
        "valueType"      : "discrete"
    },
    "module_temp": {
        "aggregateMethod": "average",
        "dataType"       : "number",
        "valueType"      : "discrete"
    },
    "pitch_angle": {
        "aggregateMethod": "average",
        "dataType"       : "number",
        "valueType"      : "discrete"
    },
    "temperature": {
        "aggregateMethod": "average",
        "dataType"       : "number",
        "valueType"      : "discrete"
    },
    "ambient_temp": {
        "aggregateMethod": "average",
        "dataType"       : "number",
        "valueType"      : "discrete"
    },
    "irradiance_vertical": {
        "aggregateMethod": "average",
        "dataType"       : "number",
        "valueType"      : "discrete"
    },
    "irradiance_horizontal": {
        "aggregateMethod": "average",
        "dataType"       : "number",
        "valueType"      : "discrete"
    }
}